vhdl isim_temp "../../../../ipbus_2_0_v1/firmware/ipbus_core/hdl/ipbus_package.vhd"
vhdl isim_temp "../../src/system/sys/system_package.vhd"
vhdl isim_temp "../../src/user/usr/slow_control/ipb_slow_control.vhd"
